%YAML 1.1
%TAG !u! tag:unity3d.com,2011:
--- !u!114 &11400000
MonoBehaviour:
  m_ObjectHideFlags: 0
  m_CorrespondingSourceObject: {fileID: 0}
  m_PrefabInstance: {fileID: 0}
  m_PrefabAsset: {fileID: 0}
  m_GameObject: {fileID: 0}
  m_Enabled: 1
  m_EditorHideFlags: 0
  m_Script: {fileID: 11500000, guid: 468a46d0ae32c3544b7d98094e6448a9, type: 3}
  m_Name: AddressableAssetSettings
  m_EditorClassIdentifier: 
  m_DefaultGroup: 37cb548f2786e4718b3ad8f166238242
  m_BuildRemoteCatalog: 0
  m_DisableCatalogUpdateOnStart: 0
  m_UniqueBundleIds: 0
  m_RemoteCatalogBuildPath:
    m_Id: 1c899003cd30a48a68f32eee71b86113
  m_RemoteCatalogLoadPath:
    m_Id: 0a696c070c2c341ae83a2ea0760eaee5
  m_overridePlayerVersion: 
  m_GroupAssets:
  - {fileID: 11400000, guid: 3f04676faa9f24c2f803d2ff09cb0689, type: 2}
  - {fileID: 11400000, guid: 1e257b5f969b141a180d99a9be96fd9a, type: 2}
  - {fileID: 11400000, guid: 0b154bcd923864a00a42d6ae37396eae, type: 2}
  m_BuildSettings:
    m_CompileScriptsInVirtualMode: 0
    m_CleanupStreamingAssetsAfterBuilds: 1
    m_LogResourceManagerExceptions: 1
    m_BundleBuildPath: Temp/com.unity.addressables/AssetBundles
  m_ProfileSettings:
    m_Profiles:
    - m_InheritedParent: 
      m_Id: af08c2af45b204fb3bf86b6fe3699711
      m_ProfileName: Default
      m_Values:
      - m_Id: a3f3aa24676224d3ea4c0811f378934d
        m_Value: '[UnityEditor.EditorUserBuildSettings.activeBuildTarget]'
      - m_Id: 9bec7c8e489c740509d904337b01b7da
        m_Value: '[UnityEngine.AddressableAssets.Addressables.BuildPath]/[BuildTarget]'
      - m_Id: f40602c23d01b4f9fa1d65d828ae271b
        m_Value: '{UnityEngine.AddressableAssets.Addressables.RuntimePath}/[BuildTarget]'
      - m_Id: 1c899003cd30a48a68f32eee71b86113
        m_Value: ServerData/[BuildTarget]
      - m_Id: 0a696c070c2c341ae83a2ea0760eaee5
        m_Value: http://localhost/[BuildTarget]
    - m_InheritedParent: 
      m_Id: 74a1e1080e2754a4491536428eb7a4a7
      m_ProfileName: Remote Bunny
      m_Values:
      - m_Id: a3f3aa24676224d3ea4c0811f378934d
        m_Value: '[UnityEditor.EditorUserBuildSettings.activeBuildTarget]'
      - m_Id: 9bec7c8e489c740509d904337b01b7da
        m_Value: '[UnityEngine.AddressableAssets.Addressables.BuildPath]/[BuildTarget]'
      - m_Id: f40602c23d01b4f9fa1d65d828ae271b
        m_Value: '{UnityEngine.AddressableAssets.Addressables.RuntimePath}/[BuildTarget]'
      - m_Id: 1c899003cd30a48a68f32eee71b86113
        m_Value: ServerData/[BuildTarget]
      - m_Id: 0a696c070c2c341ae83a2ea0760eaee5
        m_Value: https://thoughtworks.b-cdn.net/[BuildTarget]
    m_ProfileEntryNames:
    - m_Id: a3f3aa24676224d3ea4c0811f378934d
      m_Name: BuildTarget
      m_InlineUsage: 0
    - m_Id: 9bec7c8e489c740509d904337b01b7da
      m_Name: LocalBuildPath
      m_InlineUsage: 0
    - m_Id: f40602c23d01b4f9fa1d65d828ae271b
      m_Name: LocalLoadPath
      m_InlineUsage: 0
    - m_Id: 1c899003cd30a48a68f32eee71b86113
      m_Name: RemoteBuildPath
      m_InlineUsage: 0
    - m_Id: 0a696c070c2c341ae83a2ea0760eaee5
      m_Name: RemoteLoadPath
      m_InlineUsage: 0
    m_ProfileVersion: 1
  m_LabelTable:
    m_LabelNames:
    - default
    - 3D_model
    - holo_video
  m_SchemaTemplates: []
  m_GroupTemplateObjects:
  - {fileID: 11400000, guid: d0a0b26cc84f4498798244152eee386a, type: 2}
  m_InitializationObjects: []
  m_CertificateHandlerType:
    m_AssemblyName: 
    m_ClassName: 
  m_ActivePlayerDataBuilderIndex: 3
  m_DataBuilders:
  - {fileID: 11400000, guid: c4455f4a0bd764ac59cf4a90096a49b6, type: 2}
  - {fileID: 11400000, guid: e85eb7e29f56049c7b54ade0c1e31657, type: 2}
  - {fileID: 11400000, guid: c800ec63c5fb0431aba103631bc136b7, type: 2}
  - {fileID: 11400000, guid: ad25d4eaf62644858b131508789cb7a5, type: 2}
  m_ActiveProfileId: 74a1e1080e2754a4491536428eb7a4a7
  m_HostingServicesManager:
    m_HostingServiceInfos: []
    m_Settings: {fileID: 11400000}
    m_NextInstanceId: 0
    m_RegisteredServiceTypeRefs: []
